^C:\USERS\NICOLAS\DOCUMENTS\INFO\LICENCE\PROJET TRANSVERSALLE\RDF\RFID\TESTPROCEDURESTOCKÉÉE\TESTPROCEDURESTOCKÉÉE\MAIN.CPP
/c /AI"C:\Program Files (x86)\Microsoft.NET\Odbc.Net" /Z7 /clr /nologo /W3 /WX- /Od /Oy- /D WIN32 /D _DEBUG /D _CONSOLE /D _UNICODE /D UNICODE /Gm- /MDd /GS /fp:precise /Zc:wchar_t /Zc:forScope /Fo"Debug\\" /Fd"Debug\vc100.pdb" /Gd /TP /FU"C:\Program Files (x86)\Reference Assemblies\Microsoft\Framework\.NETFramework\v4.0\System.Core.dll" /analyze- /errorReport:prompt C:\USERS\NICOLAS\DOCUMENTS\INFO\LICENCE\PROJET TRANSVERSALLE\RDF\RFID\TESTPROCEDURESTOCKÉÉE\TESTPROCEDURESTOCKÉÉE\MAIN.CPP
^C:\USERS\NICOLAS\DOCUMENTS\INFO\LICENCE\PROJET TRANSVERSALLE\RDF\RFID\TESTPROCEDURESTOCKÉÉE\TESTPROCEDURESTOCKÉÉE\REQUETEBDD.CPP
/c /AI"C:\Program Files (x86)\Microsoft.NET\Odbc.Net" /Z7 /clr /nologo /W3 /WX- /Od /Oy- /D WIN32 /D _DEBUG /D _CONSOLE /D _UNICODE /D UNICODE /Gm- /MDd /GS /fp:precise /Zc:wchar_t /Zc:forScope /Fo"Debug\\" /Fd"Debug\vc100.pdb" /Gd /TP /FU"C:\Program Files (x86)\Reference Assemblies\Microsoft\Framework\.NETFramework\v4.0\System.Core.dll" /analyze- /errorReport:prompt C:\USERS\NICOLAS\DOCUMENTS\INFO\LICENCE\PROJET TRANSVERSALLE\RDF\RFID\TESTPROCEDURESTOCKÉÉE\TESTPROCEDURESTOCKÉÉE\REQUETEBDD.CPP
